/**
 * <p>Project: com.shandar.rytry.tutorial.princeton </p>
 * <p>Package Name: com.shandar.rytry.tutorial.princeton </p>
 * <p>File Name: PlayThatTune.java </p>
 * <p>Create Date: Sep 2, 2015 </p>
 * <p>Create Time: 11:28:26 PM </p>
 * <p>Description: </p>
 * <p>Copyright: Copyright (c) 2014</p>
 * <p>Company:  </p>
 * @author Shantanu Sikdar
 * @version 1.0
 */
package com.shandar.rytry.tutorial.princeton;

/**
 * Compilation: javac TwentyQuestions.java Execution: java TwentyQuestions
 * Dependencies StdIn.java
 *
 * % java TwentyQuestions I'm thinking of a number between 1 and 1,000,000
 * What's your guess? 500000 Too high What's your guess? 250000 Too low What's
 * your guess? 375000 Too high What's your guess? 312500 Too high What's your
 * guess? 300500 Too low ...
 *
 */

public class TwentyQuestions {

	public static void main(String[] args) {

		// Generate a number and answer questions
		// while the user tries to guess the value.
		int secret = 1 + (int) (Math.random() * 1000000);

		StdOut.print("I'm thinking of a number ");
		StdOut.println("between 1 and 1,000,000");
		int guess = 0;
		while (guess != secret) {

			// Solicit one guess and provide one answer
			StdOut.print("What's your guess? ");
			guess = StdIn.readInt();
			if (guess == secret)
				StdOut.println("You win!");
			else if (guess < secret)
				StdOut.println("Too low ");
			else if (guess > secret)
				StdOut.println("Too high");
		}
	}
}
